EXAMPLE(in X, Y; out Z);
var(A, B, C, d, e);
while X != Y do
begin
    X = X + 1;
    A = X + 1;
    B = B + 1;
    C = 0;
    while C != X do
    begin
        C = C + 1;
        e = e + 1
    end;
    d = B + 1;
    d = d + 1
end